EESchema Schematic File Version 4
EELAYER 26 0
EELAYER END
$Descr A4 11693 8268
encoding utf-8
Sheet 1 1
Title ""
Date ""
Rev ""
Comp ""
Comment1 ""
Comment2 ""
Comment3 ""
Comment4 ""
$EndDescr
$Comp
L cbm:6581 U2
U 1 1 5DA5D0BF
P 6950 5050
F 0 "U2" H 6950 6028 50  0000 C CNN
F 1 "6581" H 6950 5937 50  0000 C CNN
F 2 "Package_DIP:DIP-28_W15.24mm_Socket" H 6950 5050 50  0001 C CNN
F 3 "" H 6950 5050 50  0000 C CNN
	1    6950 5050
	1    0    0    -1  
$EndComp
$Comp
L MCU_Microchip_ATmega:ATmega644P-20PU U1
U 1 1 5DA5DF21
P 1500 2850
F 0 "U1" H 1500 764 50  0000 C CNN
F 1 "ATmega644P-20PU" H 1500 673 50  0000 C CNN
F 2 "Package_DIP:DIP-40_W15.24mm_Socket_LongPads" H 1500 2850 50  0001 C CIN
F 3 "http://ww1.microchip.com/downloads/en/DeviceDoc/Atmel-42744-ATmega644P_Datasheet.pdf" H 1500 2850 50  0001 C CNN
	1    1500 2850
	1    0    0    -1  
$EndComp
Text GLabel 2100 1150 2    50   BiDi ~ 0
PA0
Text GLabel 2100 1250 2    50   BiDi ~ 0
PA1
Text GLabel 2100 1350 2    50   BiDi ~ 0
PA2
Text GLabel 2100 1450 2    50   BiDi ~ 0
PA3
Text GLabel 2100 1550 2    50   BiDi ~ 0
PA4
Text GLabel 2100 1650 2    50   BiDi ~ 0
PA5
Text GLabel 2100 1750 2    50   BiDi ~ 0
PA6
Text GLabel 2100 1850 2    50   BiDi ~ 0
PA7
Text GLabel 2100 2050 2    50   BiDi ~ 0
PB0
Text GLabel 2100 2150 2    50   BiDi ~ 0
PB1
Text GLabel 2100 2250 2    50   BiDi ~ 0
PB2
Text GLabel 2100 2350 2    50   BiDi ~ 0
PB3
Text GLabel 2100 2450 2    50   BiDi ~ 0
PB4
Text GLabel 2100 2550 2    50   BiDi ~ 0
PB5
Text GLabel 2100 2650 2    50   BiDi ~ 0
PB6
Text GLabel 2100 2750 2    50   BiDi ~ 0
PB7
Text GLabel 5050 7500 0    50   BiDi ~ 0
PD5
Text GLabel 5050 7600 0    50   BiDi ~ 0
PD6
Text GLabel 5050 7700 0    50   BiDi ~ 0
PD7
Text GLabel 7650 4350 2    50   BiDi ~ 0
SD0
Text GLabel 7650 4450 2    50   BiDi ~ 0
SD1
Text GLabel 7650 4550 2    50   BiDi ~ 0
SD2
Text GLabel 7650 4650 2    50   BiDi ~ 0
SD3
Text GLabel 7650 4750 2    50   BiDi ~ 0
SD4
Text GLabel 7650 4850 2    50   BiDi ~ 0
SD5
Text GLabel 7650 4950 2    50   BiDi ~ 0
SD6
Text GLabel 7650 5050 2    50   BiDi ~ 0
SD7
Text GLabel 7650 5200 2    50   BiDi ~ 0
SA0
Text GLabel 7650 5300 2    50   BiDi ~ 0
SA1
Text GLabel 7650 5400 2    50   BiDi ~ 0
SA2
Text GLabel 7650 5500 2    50   BiDi ~ 0
SA3
Text GLabel 7650 5600 2    50   BiDi ~ 0
SA4
$Comp
L power:GND #PWR02
U 1 1 5DA5E797
P 1500 5150
F 0 "#PWR02" H 1500 4900 50  0001 C CNN
F 1 "GND" H 1505 4977 50  0000 C CNN
F 2 "" H 1500 5150 50  0001 C CNN
F 3 "" H 1500 5150 50  0001 C CNN
	1    1500 5150
	1    0    0    -1  
$EndComp
$Comp
L power:VCC #PWR01
U 1 1 5DA5E7CC
P 1500 700
F 0 "#PWR01" H 1500 550 50  0001 C CNN
F 1 "VCC" H 1517 873 50  0000 C CNN
F 2 "" H 1500 700 50  0001 C CNN
F 3 "" H 1500 700 50  0001 C CNN
	1    1500 700 
	1    0    0    -1  
$EndComp
$Comp
L power:VDD #PWR04
U 1 1 5DA5E841
P 3450 5750
F 0 "#PWR04" H 3450 5600 50  0001 C CNN
F 1 "VDD" H 3467 5923 50  0000 C CNN
F 2 "" H 3450 5750 50  0001 C CNN
F 3 "" H 3450 5750 50  0001 C CNN
	1    3450 5750
	1    0    0    -1  
$EndComp
Wire Wire Line
	1500 850  1500 750 
$Comp
L power:VCC #PWR03
U 1 1 5DA5E95C
P 1100 5600
F 0 "#PWR03" H 1100 5450 50  0001 C CNN
F 1 "VCC" H 1117 5773 50  0000 C CNN
F 2 "" H 1100 5600 50  0001 C CNN
F 3 "" H 1100 5600 50  0001 C CNN
	1    1100 5600
	1    0    0    -1  
$EndComp
$Comp
L power:GND #PWR05
U 1 1 5DA5E98B
P 1100 6400
F 0 "#PWR05" H 1100 6150 50  0001 C CNN
F 1 "GND" H 1105 6227 50  0000 C CNN
F 2 "" H 1100 6400 50  0001 C CNN
F 3 "" H 1100 6400 50  0001 C CNN
	1    1100 6400
	1    0    0    -1  
$EndComp
Text GLabel 900  1750 0    50   BiDi ~ 0
AREF
Text GLabel 900  1550 0    50   BiDi ~ 0
AXTAL2
Text GLabel 900  1350 0    50   BiDi ~ 0
AXTAL1
Text GLabel 900  1150 0    50   BiDi ~ 0
ARESET
Text GLabel 1800 750  2    50   BiDi ~ 0
VDDA
Wire Wire Line
	1600 750  1600 850 
Wire Wire Line
	1500 5150 1500 4850
Text GLabel 1150 5650 2    50   BiDi ~ 0
VCC
Wire Wire Line
	1150 5650 1100 5650
Wire Wire Line
	1100 5650 1100 5600
$Comp
L Device:C C1
U 1 1 5DA5EBE1
P 5700 4500
F 0 "C1" H 5815 4546 50  0000 L CNN
F 1 "C" H 5815 4455 50  0000 L CNN
F 2 "Capacitor_THT:C_Disc_D3.0mm_W2.0mm_P2.50mm" H 5738 4350 50  0001 C CNN
F 3 "~" H 5700 4500 50  0001 C CNN
	1    5700 4500
	1    0    0    -1  
$EndComp
$Comp
L Device:C C2
U 1 1 5DA5ECC7
P 6000 4300
F 0 "C2" H 6115 4346 50  0000 L CNN
F 1 "C" H 6115 4255 50  0000 L CNN
F 2 "Capacitor_THT:C_Disc_D3.0mm_W2.0mm_P2.50mm" H 6038 4150 50  0001 C CNN
F 3 "~" H 6000 4300 50  0001 C CNN
	1    6000 4300
	1    0    0    -1  
$EndComp
Wire Wire Line
	6250 4550 5900 4550
Wire Wire Line
	5900 4550 5900 4350
Wire Wire Line
	5900 4350 5700 4350
Wire Wire Line
	5700 4650 6250 4650
Wire Wire Line
	6000 4450 6250 4450
Wire Wire Line
	6250 4350 6200 4350
Wire Wire Line
	6200 4350 6200 4150
Wire Wire Line
	6200 4150 6000 4150
Text GLabel 6250 5050 0    50   BiDi ~ 0
SPOTX
Text GLabel 6250 4800 0    50   BiDi ~ 0
SAUDIOIN
Text GLabel 6250 5150 0    50   BiDi ~ 0
SPOTY
Text GLabel 6250 4900 0    50   BiDi ~ 0
SAUDIOOUT
Text GLabel 6250 5600 0    50   BiDi ~ 0
SRW
Text GLabel 6250 5350 0    50   BiDi ~ 0
SCLOCK
Text GLabel 6250 5750 0    50   BiDi ~ 0
SRESET
Text GLabel 6250 5500 0    50   BiDi ~ 0
SCS
Text GLabel 5350 6150 2    50   BiDi ~ 0
SD0
Text GLabel 5350 6250 2    50   BiDi ~ 0
SD1
Text GLabel 5350 6350 2    50   BiDi ~ 0
SD2
Text GLabel 5350 6450 2    50   BiDi ~ 0
SD3
Text GLabel 5350 6550 2    50   BiDi ~ 0
SD4
Text GLabel 5350 6650 2    50   BiDi ~ 0
SD5
Text GLabel 5350 6750 2    50   BiDi ~ 0
SD6
Text GLabel 5350 6850 2    50   BiDi ~ 0
SD7
Text GLabel 5350 7000 2    50   BiDi ~ 0
SA0
Text GLabel 5350 7100 2    50   BiDi ~ 0
SA1
Text GLabel 5350 7200 2    50   BiDi ~ 0
SA2
Text GLabel 5350 7300 2    50   BiDi ~ 0
SA3
Text GLabel 5350 7400 2    50   BiDi ~ 0
SA4
Text GLabel 5350 7600 2    50   BiDi ~ 0
SRW
Text GLabel 5350 7700 2    50   BiDi ~ 0
SRESET
Text GLabel 5350 7500 2    50   BiDi ~ 0
SCS
Text GLabel 2100 2950 2    50   BiDi ~ 0
PC0
Text GLabel 2100 3050 2    50   BiDi ~ 0
PC1
Text GLabel 2100 3150 2    50   BiDi ~ 0
PC2
Text GLabel 2100 3250 2    50   BiDi ~ 0
PC3
Text GLabel 2100 3350 2    50   BiDi ~ 0
PC4
Text GLabel 2100 3450 2    50   BiDi ~ 0
PC5
Text GLabel 2100 3550 2    50   BiDi ~ 0
PC6
Text GLabel 2100 3650 2    50   BiDi ~ 0
PC7
Text GLabel 2100 3850 2    50   BiDi ~ 0
PD0
Text GLabel 2100 3950 2    50   BiDi ~ 0
PD1
Text GLabel 2100 4050 2    50   BiDi ~ 0
PD2
Text GLabel 2100 4150 2    50   BiDi ~ 0
PD3
Text GLabel 2100 4250 2    50   BiDi ~ 0
PD4
Text GLabel 2100 4350 2    50   BiDi ~ 0
PD5
Text GLabel 2100 4450 2    50   BiDi ~ 0
PD6
Text GLabel 2100 4550 2    50   BiDi ~ 0
PD7
$Comp
L power:GND #PWR0101
U 1 1 5DA62F79
P 6950 5900
F 0 "#PWR0101" H 6950 5650 50  0001 C CNN
F 1 "GND" H 6955 5727 50  0000 C CNN
F 2 "" H 6950 5900 50  0001 C CNN
F 3 "" H 6950 5900 50  0001 C CNN
	1    6950 5900
	1    0    0    -1  
$EndComp
Text GLabel 5050 6150 0    50   BiDi ~ 0
PA0
Text GLabel 5050 6250 0    50   BiDi ~ 0
PA1
Text GLabel 5050 6350 0    50   BiDi ~ 0
PA2
Text GLabel 5050 6450 0    50   BiDi ~ 0
PA3
Text GLabel 5050 6550 0    50   BiDi ~ 0
PA4
Text GLabel 5050 6650 0    50   BiDi ~ 0
PA5
Text GLabel 5050 6750 0    50   BiDi ~ 0
PA6
Text GLabel 5050 6850 0    50   BiDi ~ 0
PA7
Text GLabel 5050 7000 0    50   BiDi ~ 0
PB0
Text GLabel 5050 7100 0    50   BiDi ~ 0
PB1
Text GLabel 5050 7200 0    50   BiDi ~ 0
PB2
Text GLabel 5050 7300 0    50   BiDi ~ 0
PB3
Text GLabel 5050 7400 0    50   BiDi ~ 0
PB4
$Comp
L Device:R R1
U 1 1 5DA755B3
P 9200 3450
F 0 "R1" V 8993 3450 50  0000 C CNN
F 1 "1k" V 9084 3450 50  0000 C CNN
F 2 "Resistor_THT:R_Axial_DIN0204_L3.6mm_D1.6mm_P2.54mm_Vertical" V 9130 3450 50  0001 C CNN
F 3 "~" H 9200 3450 50  0001 C CNN
	1    9200 3450
	0    1    1    0   
$EndComp
$Comp
L Device:R R2
U 1 1 5DA755BA
P 9200 3650
F 0 "R2" V 8993 3650 50  0000 C CNN
F 1 "1k" V 9084 3650 50  0000 C CNN
F 2 "Resistor_THT:R_Axial_DIN0204_L3.6mm_D1.6mm_P2.54mm_Vertical" V 9130 3650 50  0001 C CNN
F 3 "~" H 9200 3650 50  0001 C CNN
	1    9200 3650
	0    1    1    0   
$EndComp
$Comp
L Device:R R3
U 1 1 5DA755C1
P 9200 3850
F 0 "R3" V 8993 3850 50  0000 C CNN
F 1 "1k" V 9084 3850 50  0000 C CNN
F 2 "Resistor_THT:R_Axial_DIN0204_L3.6mm_D1.6mm_P2.54mm_Vertical" V 9130 3850 50  0001 C CNN
F 3 "~" H 9200 3850 50  0001 C CNN
	1    9200 3850
	0    1    1    0   
$EndComp
$Comp
L Device:R R4
U 1 1 5DA755C8
P 9200 4050
F 0 "R4" V 8993 4050 50  0000 C CNN
F 1 "1k" V 9084 4050 50  0000 C CNN
F 2 "Resistor_THT:R_Axial_DIN0204_L3.6mm_D1.6mm_P2.54mm_Vertical" V 9130 4050 50  0001 C CNN
F 3 "~" H 9200 4050 50  0001 C CNN
	1    9200 4050
	0    1    1    0   
$EndComp
$Comp
L Device:R R5
U 1 1 5DA755CF
P 9200 4250
F 0 "R5" V 8993 4250 50  0000 C CNN
F 1 "1k" V 9084 4250 50  0000 C CNN
F 2 "Resistor_THT:R_Axial_DIN0204_L3.6mm_D1.6mm_P2.54mm_Vertical" V 9130 4250 50  0001 C CNN
F 3 "~" H 9200 4250 50  0001 C CNN
	1    9200 4250
	0    1    1    0   
$EndComp
$Comp
L Device:R R6
U 1 1 5DA755D6
P 9200 4450
F 0 "R6" V 8993 4450 50  0000 C CNN
F 1 "1k" V 9084 4450 50  0000 C CNN
F 2 "Resistor_THT:R_Axial_DIN0204_L3.6mm_D1.6mm_P2.54mm_Vertical" V 9130 4450 50  0001 C CNN
F 3 "~" H 9200 4450 50  0001 C CNN
	1    9200 4450
	0    1    1    0   
$EndComp
$Comp
L Device:R R7
U 1 1 5DA755DD
P 9200 4650
F 0 "R7" V 8993 4650 50  0000 C CNN
F 1 "1k" V 9084 4650 50  0000 C CNN
F 2 "Resistor_THT:R_Axial_DIN0204_L3.6mm_D1.6mm_P2.54mm_Vertical" V 9130 4650 50  0001 C CNN
F 3 "~" H 9200 4650 50  0001 C CNN
	1    9200 4650
	0    1    1    0   
$EndComp
$Comp
L Device:R R8
U 1 1 5DA755E4
P 9200 4850
F 0 "R8" V 8993 4850 50  0000 C CNN
F 1 "1k" V 9084 4850 50  0000 C CNN
F 2 "Resistor_THT:R_Axial_DIN0204_L3.6mm_D1.6mm_P2.54mm_Vertical" V 9130 4850 50  0001 C CNN
F 3 "~" H 9200 4850 50  0001 C CNN
	1    9200 4850
	0    1    1    0   
$EndComp
Wire Wire Line
	6950 5900 6950 5850
Text GLabel 1200 750  0    50   BiDi ~ 0
VCC
Wire Wire Line
	1200 750  1500 750 
Connection ~ 1500 750 
Wire Wire Line
	1500 750  1500 700 
$Comp
L Device:C C3
U 1 1 5DB002CA
P 1100 6100
F 0 "C3" H 1215 6146 50  0000 L CNN
F 1 "C" H 1215 6055 50  0000 L CNN
F 2 "Capacitor_THT:C_Disc_D3.0mm_W2.0mm_P2.50mm" H 1138 5950 50  0001 C CNN
F 3 "~" H 1100 6100 50  0001 C CNN
	1    1100 6100
	1    0    0    -1  
$EndComp
$Comp
L Device:C C4
U 1 1 5DB003E5
P 1400 6100
F 0 "C4" H 1515 6146 50  0000 L CNN
F 1 "C" H 1515 6055 50  0000 L CNN
F 2 "Capacitor_THT:C_Disc_D3.0mm_W2.0mm_P2.50mm" H 1438 5950 50  0001 C CNN
F 3 "~" H 1400 6100 50  0001 C CNN
	1    1400 6100
	1    0    0    -1  
$EndComp
$Comp
L Device:C C5
U 1 1 5DB004F3
P 1700 6100
F 0 "C5" H 1815 6146 50  0000 L CNN
F 1 "C" H 1815 6055 50  0000 L CNN
F 2 "Capacitor_THT:C_Disc_D3.0mm_W2.0mm_P2.50mm" H 1738 5950 50  0001 C CNN
F 3 "~" H 1700 6100 50  0001 C CNN
	1    1700 6100
	1    0    0    -1  
$EndComp
Connection ~ 1100 5650
Wire Wire Line
	1100 5900 1400 5900
Wire Wire Line
	1700 5900 1700 5950
Wire Wire Line
	1100 5900 1100 5950
Wire Wire Line
	1400 5900 1400 5950
Connection ~ 1400 5900
Wire Wire Line
	1400 5900 1700 5900
Wire Wire Line
	1100 6400 1100 6350
Wire Wire Line
	1100 6350 1400 6350
Connection ~ 1100 6350
Wire Wire Line
	1100 6350 1100 6250
Wire Wire Line
	1700 6350 1700 6250
Wire Wire Line
	1400 6350 1400 6250
Connection ~ 1400 6350
Wire Wire Line
	1400 6350 1700 6350
Text GLabel 7100 4100 2    50   BiDi ~ 0
VDD
Text GLabel 6950 3950 2    50   BiDi ~ 0
VCC
Wire Wire Line
	6950 4250 6950 3950
Wire Wire Line
	7100 4100 7100 4250
$Comp
L Oscillator:CXO_DIP14 X1
U 1 1 5DB760C9
P 4050 4950
F 0 "X1" H 4391 4996 50  0000 L CNN
F 1 "CXO_DIP14" H 4391 4905 50  0000 L CNN
F 2 "Oscillator:Oscillator_DIP-14" H 4500 4600 50  0001 C CNN
F 3 "http://cdn-reichelt.de/documents/datenblatt/B400/OSZI.pdf" H 3950 4950 50  0001 C CNN
	1    4050 4950
	1    0    0    -1  
$EndComp
Text GLabel 4100 4550 2    50   BiDi ~ 0
VCC
$Comp
L power:GND #PWR0111
U 1 1 5DB76564
P 4050 5300
F 0 "#PWR0111" H 4050 5050 50  0001 C CNN
F 1 "GND" H 4055 5127 50  0000 C CNN
F 2 "" H 4050 5300 50  0001 C CNN
F 3 "" H 4050 5300 50  0001 C CNN
	1    4050 5300
	1    0    0    -1  
$EndComp
Text GLabel 4800 4950 2    50   BiDi ~ 0
SCLOCK
Text GLabel 3650 4950 0    50   BiDi ~ 0
PD4
Wire Wire Line
	4100 4550 4050 4550
Wire Wire Line
	4050 4550 4050 4650
Wire Wire Line
	3750 4950 3650 4950
Wire Wire Line
	4050 5300 4050 5250
Text GLabel 7000 1100 0    50   BiDi ~ 0
VDD
$Comp
L power:GND #PWR011
U 1 1 5DBD0F9F
P 7900 2150
F 0 "#PWR011" H 7900 1900 50  0001 C CNN
F 1 "GND" H 7905 1977 50  0000 C CNN
F 2 "" H 7900 2150 50  0001 C CNN
F 3 "" H 7900 2150 50  0001 C CNN
	1    7900 2150
	1    0    0    -1  
$EndComp
$Comp
L Device:CP C20
U 1 1 5DBD15FA
P 9150 1800
F 0 "C20" H 9268 1846 50  0000 L CNN
F 1 "470u" H 9268 1755 50  0000 L CNN
F 2 "Capacitor_THT:CP_Radial_D10.0mm_P2.50mm_P5.00mm" H 9188 1650 50  0001 C CNN
F 3 "~" H 9150 1800 50  0001 C CNN
	1    9150 1800
	0    -1   -1   0   
$EndComp
Text GLabel 6400 1400 0    50   BiDi ~ 0
SAUDIOOUT
Wire Wire Line
	7900 2100 7900 2150
Wire Wire Line
	6400 1400 6600 1400
$Comp
L power:GND #PWR010
U 1 1 5DC29735
P 6600 1950
F 0 "#PWR010" H 6600 1700 50  0001 C CNN
F 1 "GND" H 6605 1777 50  0000 C CNN
F 2 "" H 6600 1950 50  0001 C CNN
F 3 "" H 6600 1950 50  0001 C CNN
	1    6600 1950
	1    0    0    -1  
$EndComp
Text GLabel 2600 5800 0    50   BiDi ~ 0
ARESET
Text GLabel 2600 5400 0    50   BiDi ~ 0
VCC
$Comp
L Device:R R39
U 1 1 5DC40F49
P 2650 5600
F 0 "R39" H 2720 5646 50  0000 L CNN
F 1 "47k" H 2720 5555 50  0000 L CNN
F 2 "Resistor_THT:R_Axial_DIN0207_L6.3mm_D2.5mm_P5.08mm_Vertical" V 2580 5600 50  0001 C CNN
F 3 "~" H 2650 5600 50  0001 C CNN
	1    2650 5600
	1    0    0    -1  
$EndComp
$Comp
L Device:C C18
U 1 1 5DC4125A
P 4400 6050
F 0 "C18" H 4515 6096 50  0000 L CNN
F 1 "100n" H 4515 6005 50  0000 L CNN
F 2 "Capacitor_THT:C_Disc_D3.0mm_W2.0mm_P2.50mm" H 4438 5900 50  0001 C CNN
F 3 "~" H 4400 6050 50  0001 C CNN
	1    4400 6050
	1    0    0    -1  
$EndComp
$Comp
L power:GND #PWR08
U 1 1 5DC41382
P 4400 6250
F 0 "#PWR08" H 4400 6000 50  0001 C CNN
F 1 "GND" H 4405 6077 50  0000 C CNN
F 2 "" H 4400 6250 50  0001 C CNN
F 3 "" H 4400 6250 50  0001 C CNN
	1    4400 6250
	1    0    0    -1  
$EndComp
Wire Wire Line
	2600 5800 2650 5800
Wire Wire Line
	2650 5800 2650 5750
Wire Wire Line
	2650 5800 2650 5850
Connection ~ 2650 5800
Wire Wire Line
	2600 5400 2650 5400
Wire Wire Line
	2650 5400 2650 5450
Text GLabel 1300 7000 0    50   BiDi ~ 0
AXTAL1
Text GLabel 1300 7400 0    50   BiDi ~ 0
AXTAL2
$Comp
L Device:C C15
U 1 1 5DC896F8
P 2150 7000
F 0 "C15" V 1898 7000 50  0000 C CNN
F 1 "22p" V 1989 7000 50  0000 C CNN
F 2 "Capacitor_THT:C_Disc_D3.0mm_W2.0mm_P2.50mm" H 2188 6850 50  0001 C CNN
F 3 "~" H 2150 7000 50  0001 C CNN
	1    2150 7000
	0    1    1    0   
$EndComp
$Comp
L Device:C C16
U 1 1 5DC960B2
P 2150 7400
F 0 "C16" V 1898 7400 50  0000 C CNN
F 1 "22p" V 1989 7400 50  0000 C CNN
F 2 "Capacitor_THT:C_Disc_D3.0mm_W2.0mm_P2.50mm" H 2188 7250 50  0001 C CNN
F 3 "~" H 2150 7400 50  0001 C CNN
	1    2150 7400
	0    1    1    0   
$EndComp
$Comp
L Device:Crystal Y1
U 1 1 5DC9644D
P 1700 7200
F 0 "Y1" V 1654 7331 50  0000 L CNN
F 1 "16MHz" V 1745 7331 50  0000 L CNN
F 2 "Crystal:Crystal_HC49-4H_Vertical" H 1700 7200 50  0001 C CNN
F 3 "~" H 1700 7200 50  0001 C CNN
	1    1700 7200
	0    1    1    0   
$EndComp
$Comp
L Device:R R38
U 1 1 5DCA2BF7
P 1450 7200
F 0 "R38" H 1520 7246 50  0000 L CNN
F 1 "1M" H 1520 7155 50  0000 L CNN
F 2 "Resistor_THT:R_Axial_DIN0207_L6.3mm_D2.5mm_P5.08mm_Vertical" V 1380 7200 50  0001 C CNN
F 3 "~" H 1450 7200 50  0001 C CNN
	1    1450 7200
	1    0    0    -1  
$EndComp
$Comp
L power:GND #PWR06
U 1 1 5DCB0B7C
P 2400 7450
F 0 "#PWR06" H 2400 7200 50  0001 C CNN
F 1 "GND" H 2405 7277 50  0000 C CNN
F 2 "" H 2400 7450 50  0001 C CNN
F 3 "" H 2400 7450 50  0001 C CNN
	1    2400 7450
	1    0    0    -1  
$EndComp
Wire Wire Line
	1300 7000 1450 7000
Wire Wire Line
	2000 7400 1700 7400
Wire Wire Line
	1450 7350 1450 7400
Connection ~ 1450 7400
Wire Wire Line
	1450 7400 1300 7400
Wire Wire Line
	1450 7050 1450 7000
Connection ~ 1450 7000
Wire Wire Line
	1450 7000 1700 7000
Wire Wire Line
	1700 7050 1700 7000
Connection ~ 1700 7000
Wire Wire Line
	1700 7000 2000 7000
Wire Wire Line
	1700 7350 1700 7400
Connection ~ 1700 7400
Wire Wire Line
	1700 7400 1450 7400
Wire Wire Line
	2400 7450 2400 7400
Wire Wire Line
	2400 7000 2300 7000
Wire Wire Line
	2300 7400 2400 7400
Connection ~ 2400 7400
Wire Wire Line
	2400 7400 2400 7000
Text GLabel 4350 5800 0    50   BiDi ~ 0
AREF
$Comp
L Device:C C17
U 1 1 5DD1C568
P 2650 6000
F 0 "C17" H 2765 6046 50  0000 L CNN
F 1 "10n" H 2765 5955 50  0000 L CNN
F 2 "Capacitor_THT:C_Disc_D3.0mm_W2.0mm_P2.50mm" H 2688 5850 50  0001 C CNN
F 3 "~" H 2650 6000 50  0001 C CNN
	1    2650 6000
	1    0    0    -1  
$EndComp
$Comp
L power:GND #PWR07
U 1 1 5DD1C56E
P 2650 6200
F 0 "#PWR07" H 2650 5950 50  0001 C CNN
F 1 "GND" H 2655 6027 50  0000 C CNN
F 2 "" H 2650 6200 50  0001 C CNN
F 3 "" H 2650 6200 50  0001 C CNN
	1    2650 6200
	1    0    0    -1  
$EndComp
Wire Wire Line
	2650 6200 2650 6150
Wire Wire Line
	4400 6250 4400 6200
Wire Wire Line
	4350 5800 4400 5800
Wire Wire Line
	4400 5800 4400 5900
Text GLabel 2850 6900 0    50   BiDi ~ 0
VCC
$Comp
L pspice:INDUCTOR L1
U 1 1 5DD82992
P 3200 6900
F 0 "L1" H 3200 7115 50  0000 C CNN
F 1 "INDUCTOR" H 3200 7024 50  0000 C CNN
F 2 "Inductor_THT:L_Axial_L5.3mm_D2.2mm_P7.62mm_Horizontal_Vishay_IM-1" H 3200 6900 50  0001 C CNN
F 3 "~" H 3200 6900 50  0001 C CNN
	1    3200 6900
	1    0    0    -1  
$EndComp
$Comp
L Device:C C19
U 1 1 5DD82CCD
P 3550 7050
F 0 "C19" H 3665 7096 50  0000 L CNN
F 1 "100n" H 3665 7005 50  0000 L CNN
F 2 "Capacitor_THT:C_Disc_D3.0mm_W2.0mm_P2.50mm" H 3588 6900 50  0001 C CNN
F 3 "~" H 3550 7050 50  0001 C CNN
	1    3550 7050
	1    0    0    -1  
$EndComp
$Comp
L power:GND #PWR09
U 1 1 5DD82CD4
P 3550 7250
F 0 "#PWR09" H 3550 7000 50  0001 C CNN
F 1 "GND" H 3555 7077 50  0000 C CNN
F 2 "" H 3550 7250 50  0001 C CNN
F 3 "" H 3550 7250 50  0001 C CNN
	1    3550 7250
	1    0    0    -1  
$EndComp
Wire Wire Line
	3550 7250 3550 7200
Text GLabel 3650 6900 2    50   BiDi ~ 0
VDDA
Wire Wire Line
	2850 6900 2950 6900
Wire Wire Line
	3450 6900 3550 6900
Wire Wire Line
	3550 6900 3650 6900
Connection ~ 3550 6900
$Comp
L Connector:AVR-ISP-6 J9
U 1 1 5DDCF78F
P 3150 4350
F 0 "J9" H 2870 4446 50  0000 R CNN
F 1 "AVR-ISP-6" H 2870 4355 50  0000 R CNN
F 2 "Connector_IDC:IDC-Header_2x03_P2.54mm_Vertical" V 2900 4400 50  0001 C CNN
F 3 " ~" H 1875 3800 50  0001 C CNN
	1    3150 4350
	1    0    0    -1  
$EndComp
$Comp
L power:GND #PWR013
U 1 1 5DDD023F
P 3050 4750
F 0 "#PWR013" H 3050 4500 50  0001 C CNN
F 1 "GND" H 3055 4577 50  0000 C CNN
F 2 "" H 3050 4750 50  0001 C CNN
F 3 "" H 3050 4750 50  0001 C CNN
	1    3050 4750
	1    0    0    -1  
$EndComp
Text GLabel 3150 3800 2    50   BiDi ~ 0
VCC
Text GLabel 3550 4450 2    50   BiDi ~ 0
ARESET
Text GLabel 3550 4250 2    50   BiDi ~ 0
PB5
Text GLabel 3550 4150 2    50   BiDi ~ 0
PB6
Text GLabel 3550 4350 2    50   BiDi ~ 0
PB7
$Comp
L Connector:DIN-5_180degree J12
U 1 1 5DDE2A4E
P 2850 1350
F 0 "J12" H 2850 1076 50  0000 C CNN
F 1 "MIDI-IN" H 2850 985 50  0000 C CNN
F 2 "Eurocad:MIDI_DIN5" H 2850 1350 50  0001 C CNN
F 3 "http://www.mouser.com/ds/2/18/40_c091_abd_e-75918.pdf" H 2850 1350 50  0001 C CNN
	1    2850 1350
	1    0    0    -1  
$EndComp
$Comp
L Connector:DIN-5_180degree J13
U 1 1 5DDE3E9E
P 3100 3300
F 0 "J13" H 3100 3026 50  0000 C CNN
F 1 "MIDI_OUT" H 3100 2935 50  0000 C CNN
F 2 "Eurocad:MIDI_DIN5" H 3100 3300 50  0001 C CNN
F 3 "http://www.mouser.com/ds/2/18/40_c091_abd_e-75918.pdf" H 3100 3300 50  0001 C CNN
	1    3100 3300
	1    0    0    -1  
$EndComp
$Comp
L Device:R R46
U 1 1 5DDE4505
P 3450 2950
F 0 "R46" H 3520 2996 50  0000 L CNN
F 1 "220" H 3520 2905 50  0000 L CNN
F 2 "Resistor_THT:R_Axial_DIN0204_L3.6mm_D1.6mm_P2.54mm_Vertical" V 3380 2950 50  0001 C CNN
F 3 "~" H 3450 2950 50  0001 C CNN
	1    3450 2950
	1    0    0    -1  
$EndComp
$Comp
L Device:R R45
U 1 1 5DDE468D
P 2750 2950
F 0 "R45" H 2820 2996 50  0000 L CNN
F 1 "220" H 2820 2905 50  0000 L CNN
F 2 "Resistor_THT:R_Axial_DIN0204_L3.6mm_D1.6mm_P2.54mm_Vertical" V 2680 2950 50  0001 C CNN
F 3 "~" H 2750 2950 50  0001 C CNN
	1    2750 2950
	1    0    0    -1  
$EndComp
Text GLabel 2700 2750 0    50   BiDi ~ 0
VCC
Text GLabel 3500 2750 2    50   BiDi ~ 0
PD1
$Comp
L Isolator:PC817 U4
U 1 1 5DE052A9
P 2850 2200
F 0 "U4" H 2850 2525 50  0000 C CNN
F 1 "PC817" H 2850 2434 50  0000 C CNN
F 2 "Package_DIP:DIP-4_W7.62mm" H 2650 2000 50  0001 L CIN
F 3 "http://www.soselectronic.cz/a_info/resource/d/pc817.pdf" H 2850 2200 50  0001 L CNN
	1    2850 2200
	1    0    0    -1  
$EndComp
$Comp
L Device:R R43
U 1 1 5DE0571D
P 2500 1700
F 0 "R43" H 2570 1746 50  0000 L CNN
F 1 "220" H 2570 1655 50  0000 L CNN
F 2 "Resistor_THT:R_Axial_DIN0204_L3.6mm_D1.6mm_P2.54mm_Vertical" V 2430 1700 50  0001 C CNN
F 3 "~" H 2500 1700 50  0001 C CNN
	1    2500 1700
	1    0    0    -1  
$EndComp
Wire Wire Line
	2550 1250 2500 1250
Wire Wire Line
	2500 1250 2500 1550
Wire Wire Line
	2500 1850 2500 2100
Wire Wire Line
	2500 2100 2550 2100
Wire Wire Line
	2550 2300 2500 2300
Wire Wire Line
	2500 2300 2500 2450
Wire Wire Line
	2500 2450 3750 2450
Wire Wire Line
	3750 2450 3750 1250
Wire Wire Line
	3750 1250 3150 1250
$Comp
L Device:R R44
U 1 1 5DE35F21
P 3400 1850
F 0 "R44" H 3470 1896 50  0000 L CNN
F 1 "280" H 3470 1805 50  0000 L CNN
F 2 "Resistor_THT:R_Axial_DIN0204_L3.6mm_D1.6mm_P2.54mm_Vertical" V 3330 1850 50  0001 C CNN
F 3 "~" H 3400 1850 50  0001 C CNN
	1    3400 1850
	1    0    0    -1  
$EndComp
Text GLabel 3350 1600 0    50   BiDi ~ 0
VCC
$Comp
L power:GND #PWR015
U 1 1 5DE47425
P 3200 2300
F 0 "#PWR015" H 3200 2050 50  0001 C CNN
F 1 "GND" H 3205 2127 50  0000 C CNN
F 2 "" H 3200 2300 50  0001 C CNN
F 3 "" H 3200 2300 50  0001 C CNN
	1    3200 2300
	1    0    0    -1  
$EndComp
Text GLabel 3450 2100 2    50   BiDi ~ 0
PD0
Wire Wire Line
	3350 1600 3400 1600
Wire Wire Line
	3400 1600 3400 1700
Wire Wire Line
	3400 2000 3400 2100
Wire Wire Line
	3400 2100 3150 2100
Wire Wire Line
	3150 2300 3200 2300
Wire Wire Line
	3400 2100 3450 2100
Connection ~ 3400 2100
Wire Wire Line
	2750 2800 2750 2750
Wire Wire Line
	2750 2750 2700 2750
Wire Wire Line
	2750 3100 2750 3200
Wire Wire Line
	2750 3200 2800 3200
Wire Wire Line
	3500 2750 3450 2750
Wire Wire Line
	3450 2750 3450 2800
Wire Wire Line
	3450 3100 3450 3200
Wire Wire Line
	3450 3200 3400 3200
Text GLabel 5050 850  2    50   BiDi ~ 0
VCC
Text GLabel 5050 1550 2    50   BiDi ~ 0
VDD
$Comp
L power:GND #PWR016
U 1 1 5DEEAB6F
P 3800 950
F 0 "#PWR016" H 3800 700 50  0001 C CNN
F 1 "GND" H 3805 777 50  0000 C CNN
F 2 "" H 3800 950 50  0001 C CNN
F 3 "" H 3800 950 50  0001 C CNN
	1    3800 950 
	1    0    0    -1  
$EndComp
Wire Wire Line
	3150 3800 3050 3800
Wire Wire Line
	3050 3800 3050 3850
$Comp
L power:GND #PWR0112
U 1 1 5DF24C93
P 10100 2200
F 0 "#PWR0112" H 10100 1950 50  0001 C CNN
F 1 "GND" H 10105 2027 50  0000 C CNN
F 2 "" H 10100 2200 50  0001 C CNN
F 3 "" H 10100 2200 50  0001 C CNN
	1    10100 2200
	1    0    0    -1  
$EndComp
$Comp
L Device:C C21
U 1 1 5DF585C0
P 3300 6050
F 0 "C21" H 3415 6096 50  0000 L CNN
F 1 "100n" H 3415 6005 50  0000 L CNN
F 2 "Capacitor_THT:C_Disc_D3.0mm_W2.0mm_P2.50mm" H 3338 5900 50  0001 C CNN
F 3 "~" H 3300 6050 50  0001 C CNN
	1    3300 6050
	1    0    0    -1  
$EndComp
$Comp
L power:GND #PWR0113
U 1 1 5DF585C7
P 3300 6350
F 0 "#PWR0113" H 3300 6100 50  0001 C CNN
F 1 "GND" H 3305 6177 50  0000 C CNN
F 2 "" H 3300 6350 50  0001 C CNN
F 3 "" H 3300 6350 50  0001 C CNN
	1    3300 6350
	1    0    0    -1  
$EndComp
Text GLabel 3250 5800 0    50   BiDi ~ 0
VDD
Wire Wire Line
	3250 5800 3300 5800
Wire Wire Line
	3300 5800 3300 5900
Wire Wire Line
	3300 5800 3450 5800
Connection ~ 3300 5800
Wire Wire Line
	1100 5650 1100 5900
Connection ~ 1100 5900
Wire Wire Line
	3450 5750 3450 5800
$Comp
L Device:R R41
U 1 1 5E023738
P 4250 3700
F 0 "R41" H 4320 3746 50  0000 L CNN
F 1 "1k" H 4320 3655 50  0000 L CNN
F 2 "Resistor_THT:R_Axial_DIN0204_L3.6mm_D1.6mm_P2.54mm_Vertical" V 4180 3700 50  0001 C CNN
F 3 "~" H 4250 3700 50  0001 C CNN
	1    4250 3700
	1    0    0    -1  
$EndComp
Text GLabel 4300 3500 2    50   BiDi ~ 0
SAUDIOIN
$Comp
L power:GND #PWR0114
U 1 1 5E023AF9
P 4250 3900
F 0 "#PWR0114" H 4250 3650 50  0001 C CNN
F 1 "GND" H 4255 3727 50  0000 C CNN
F 2 "" H 4250 3900 50  0001 C CNN
F 3 "" H 4250 3900 50  0001 C CNN
	1    4250 3900
	1    0    0    -1  
$EndComp
Wire Wire Line
	4250 3550 4250 3500
Wire Wire Line
	4250 3500 4300 3500
Wire Wire Line
	4250 3900 4250 3850
$Comp
L power:GND #PWR020
U 1 1 5DD89CE1
P 7400 3400
F 0 "#PWR020" H 7400 3150 50  0001 C CNN
F 1 "GND" H 7405 3227 50  0000 C CNN
F 2 "" H 7400 3400 50  0001 C CNN
F 3 "" H 7400 3400 50  0001 C CNN
	1    7400 3400
	1    0    0    -1  
$EndComp
$Comp
L Amplifier_Audio:LM386 U5
U 1 1 5DD8AD05
P 8000 1800
F 0 "U5" H 8341 1846 50  0000 L CNN
F 1 "LM386" H 8341 1755 50  0000 L CNN
F 2 "Package_DIP:DIP-8_W7.62mm_Socket_LongPads" H 8100 1900 50  0001 C CNN
F 3 "http://www.ti.com/lit/ds/symlink/lm386.pdf" H 8200 2000 50  0001 C CNN
	1    8000 1800
	1    0    0    -1  
$EndComp
$Comp
L Device:C C11
U 1 1 5DD8B3CD
P 8150 2650
F 0 "C11" V 7898 2650 50  0000 C CNN
F 1 "10u" V 7989 2650 50  0000 C CNN
F 2 "Capacitor_THT:C_Radial_D6.3mm_H5.0mm_P2.50mm" H 8188 2500 50  0001 C CNN
F 3 "~" H 8150 2650 50  0001 C CNN
	1    8150 2650
	0    1    1    0   
$EndComp
Wire Wire Line
	8000 2100 8000 2650
$Comp
L Device:R R31
U 1 1 5DD9DBE2
P 8500 2650
F 0 "R31" V 8707 2650 50  0000 C CNN
F 1 "R" V 8616 2650 50  0000 C CNN
F 2 "Resistor_THT:R_Axial_DIN0204_L3.6mm_D1.6mm_P7.62mm_Horizontal" V 8430 2650 50  0001 C CNN
F 3 "~" H 8500 2650 50  0001 C CNN
	1    8500 2650
	0    -1   -1   0   
$EndComp
Wire Wire Line
	8300 2650 8350 2650
Wire Wire Line
	8100 2100 8100 2250
Wire Wire Line
	8100 2250 8700 2250
Wire Wire Line
	8700 2250 8700 2650
Wire Wire Line
	8700 2650 8650 2650
$Comp
L Device:C C7
U 1 1 5DDD6333
P 6950 1700
F 0 "C7" V 7202 1700 50  0000 C CNN
F 1 "270n" V 7111 1700 50  0000 C CNN
F 2 "Capacitor_THT:C_Disc_D5.0mm_W2.5mm_P5.00mm" H 6988 1550 50  0001 C CNN
F 3 "~" H 6950 1700 50  0001 C CNN
	1    6950 1700
	0    -1   -1   0   
$EndComp
$Comp
L Device:C C8
U 1 1 5DDE9742
P 7200 1900
F 0 "C8" H 7315 1946 50  0000 L CNN
F 1 "47p" H 7315 1855 50  0000 L CNN
F 2 "Capacitor_THT:C_Disc_D3.0mm_W2.0mm_P2.50mm" H 7238 1750 50  0001 C CNN
F 3 "~" H 7200 1900 50  0001 C CNN
	1    7200 1900
	1    0    0    -1  
$EndComp
$Comp
L Device:C C9
U 1 1 5DDFC76C
P 7550 2100
F 0 "C9" H 7665 2146 50  0000 L CNN
F 1 "270n" H 7665 2055 50  0000 L CNN
F 2 "Capacitor_THT:C_Disc_D5.0mm_W2.5mm_P5.00mm" H 7588 1950 50  0001 C CNN
F 3 "~" H 7550 2100 50  0001 C CNN
	1    7550 2100
	1    0    0    -1  
$EndComp
$Comp
L Device:C C10
U 1 1 5DDFCC5D
P 8150 1350
F 0 "C10" H 8265 1396 50  0000 L CNN
F 1 "270n" H 8265 1305 50  0000 L CNN
F 2 "Capacitor_THT:C_Disc_D5.0mm_W2.5mm_P5.00mm" H 8188 1200 50  0001 C CNN
F 3 "~" H 8150 1350 50  0001 C CNN
	1    8150 1350
	1    0    0    -1  
$EndComp
Wire Notes Line
	8050 2300 8750 2300
Wire Notes Line
	8750 2300 8750 2900
Wire Notes Line
	8750 2900 8050 2900
Wire Notes Line
	8050 2300 8050 2900
Text Notes 8100 2850 0    50   ~ 0
optional: gain
$Comp
L power:GND #PWR017
U 1 1 5DE34FA2
P 8150 1500
F 0 "#PWR017" H 8150 1250 50  0001 C CNN
F 1 "GND" H 8155 1327 50  0000 C CNN
F 2 "" H 8150 1500 50  0001 C CNN
F 3 "" H 8150 1500 50  0001 C CNN
	1    8150 1500
	1    0    0    -1  
$EndComp
$Comp
L Device:C C13
U 1 1 5DE3EC3D
P 8900 2000
F 0 "C13" H 9015 2046 50  0000 L CNN
F 1 "100n" H 9015 1955 50  0000 L CNN
F 2 "Capacitor_THT:C_Disc_D3.0mm_W2.0mm_P2.50mm" H 8938 1850 50  0001 C CNN
F 3 "~" H 8900 2000 50  0001 C CNN
	1    8900 2000
	1    0    0    -1  
$EndComp
$Comp
L Device:R R32
U 1 1 5DE3F0FF
P 8900 2350
F 0 "R32" H 8970 2396 50  0000 L CNN
F 1 "10R" H 8970 2305 50  0000 L CNN
F 2 "Resistor_THT:R_Axial_DIN0204_L3.6mm_D1.6mm_P2.54mm_Vertical" V 8830 2350 50  0001 C CNN
F 3 "~" H 8900 2350 50  0001 C CNN
	1    8900 2350
	1    0    0    -1  
$EndComp
$Comp
L Device:R_POT RV1
U 1 1 5DE63F89
P 6600 1700
F 0 "RV1" H 6530 1654 50  0000 R CNN
F 1 "10k" H 6530 1745 50  0000 R CNN
F 2 "Potentiometer_THT:Potentiometer_Vishay_248BH-249BH_Single_Horizontal" H 6600 1700 50  0001 C CNN
F 3 "~" H 6600 1700 50  0001 C CNN
	1    6600 1700
	1    0    0    1   
$EndComp
Wire Wire Line
	6750 1700 6800 1700
Text Notes 6450 850  0    50   ~ 0
LM386 design by JohnAudioTech\nhttps://www.youtube.com/watch?v=P4GsoMTv-SY
$Comp
L Regulator_Linear:L7809 U3
U 1 1 5DE92094
P 7400 1100
F 0 "U3" H 7400 1342 50  0000 C CNN
F 1 "L7809" H 7400 1251 50  0000 C CNN
F 2 "Package_TO_SOT_THT:TO-220-3_Vertical" H 7425 950 50  0001 L CIN
F 3 "http://www.st.com/content/ccc/resource/technical/document/datasheet/41/4f/b3/b0/12/d4/47/88/CD00000444.pdf/files/CD00000444.pdf/jcr:content/translations/en.CD00000444.pdf" H 7400 1050 50  0001 C CNN
	1    7400 1100
	1    0    0    -1  
$EndComp
Wire Wire Line
	8150 1100 8150 1200
Wire Wire Line
	7900 1100 7900 1500
Connection ~ 7900 1100
Wire Wire Line
	7900 1100 8150 1100
$Comp
L Device:CP C12
U 1 1 5DEB6E7A
P 8650 1400
F 0 "C12" H 8768 1446 50  0000 L CNN
F 1 "10u" H 8768 1355 50  0000 L CNN
F 2 "Capacitor_THT:CP_Radial_D6.3mm_P2.50mm" H 8688 1250 50  0001 C CNN
F 3 "~" H 8650 1400 50  0001 C CNN
	1    8650 1400
	1    0    0    -1  
$EndComp
$Comp
L power:GND #PWR018
U 1 1 5DEC03AB
P 8650 1550
F 0 "#PWR018" H 8650 1300 50  0001 C CNN
F 1 "GND" H 8655 1377 50  0000 C CNN
F 2 "" H 8650 1550 50  0001 C CNN
F 3 "" H 8650 1550 50  0001 C CNN
	1    8650 1550
	1    0    0    -1  
$EndComp
Wire Wire Line
	8000 1150 8650 1150
Wire Wire Line
	8650 1150 8650 1250
Wire Wire Line
	8000 1150 8000 1500
Wire Wire Line
	7550 1900 7550 1950
Wire Wire Line
	7550 1900 7700 1900
Wire Wire Line
	7100 1700 7200 1700
Wire Wire Line
	7200 1700 7200 1750
Connection ~ 7200 1700
Wire Wire Line
	7200 1700 7700 1700
$Comp
L power:GND #PWR014
U 1 1 5DEF0A5A
P 7550 2250
F 0 "#PWR014" H 7550 2000 50  0001 C CNN
F 1 "GND" H 7555 2077 50  0000 C CNN
F 2 "" H 7550 2250 50  0001 C CNN
F 3 "" H 7550 2250 50  0001 C CNN
	1    7550 2250
	1    0    0    -1  
$EndComp
$Comp
L power:GND #PWR012
U 1 1 5DEF0BAE
P 7200 2050
F 0 "#PWR012" H 7200 1800 50  0001 C CNN
F 1 "GND" H 7205 1877 50  0000 C CNN
F 2 "" H 7200 2050 50  0001 C CNN
F 3 "" H 7200 2050 50  0001 C CNN
	1    7200 2050
	1    0    0    -1  
$EndComp
$Comp
L power:GND #PWR019
U 1 1 5DEF1098
P 8900 2550
F 0 "#PWR019" H 8900 2300 50  0001 C CNN
F 1 "GND" H 8905 2377 50  0000 C CNN
F 2 "" H 8900 2550 50  0001 C CNN
F 3 "" H 8900 2550 50  0001 C CNN
	1    8900 2550
	1    0    0    -1  
$EndComp
$Comp
L Connector:Screw_Terminal_01x02 J1
U 1 1 5DF0F4FC
P 10350 2050
F 0 "J1" H 10429 2042 50  0000 L CNN
F 1 "audio_out" H 10429 1951 50  0000 L CNN
F 2 "TerminalBlock_RND:TerminalBlock_RND_205-00232_1x02_P5.08mm_Horizontal" H 10350 2050 50  0001 C CNN
F 3 "~" H 10350 2050 50  0001 C CNN
	1    10350 2050
	1    0    0    -1  
$EndComp
Wire Wire Line
	8300 1800 8900 1800
Wire Wire Line
	8900 1850 8900 1800
Connection ~ 8900 1800
Wire Wire Line
	8900 1800 9000 1800
Wire Wire Line
	8900 2200 8900 2150
Wire Wire Line
	8900 2550 8900 2500
Wire Wire Line
	10150 2150 10100 2150
Wire Wire Line
	10100 2150 10100 2200
Wire Wire Line
	9950 2050 10150 2050
$Comp
L Device:R R30
U 1 1 5DF688FF
P 4600 4950
F 0 "R30" V 4807 4950 50  0000 C CNN
F 1 "R" V 4716 4950 50  0000 C CNN
F 2 "Resistor_THT:R_Axial_DIN0204_L3.6mm_D1.6mm_P7.62mm_Horizontal" V 4530 4950 50  0001 C CNN
F 3 "~" H 4600 4950 50  0001 C CNN
	1    4600 4950
	0    -1   -1   0   
$EndComp
Wire Wire Line
	4750 4950 4800 4950
Wire Wire Line
	4350 4950 4450 4950
NoConn ~ 3100 3000
NoConn ~ 3400 3300
NoConn ~ 2800 3300
NoConn ~ 2850 1050
NoConn ~ 2550 1350
NoConn ~ 3150 1350
Wire Wire Line
	7000 1100 7100 1100
$Comp
L power:GND #PWR0102
U 1 1 5DFE917C
P 7400 1450
F 0 "#PWR0102" H 7400 1200 50  0001 C CNN
F 1 "GND" H 7405 1277 50  0000 C CNN
F 2 "" H 7400 1450 50  0001 C CNN
F 3 "" H 7400 1450 50  0001 C CNN
	1    7400 1450
	1    0    0    -1  
$EndComp
$Comp
L Regulator_Linear:L7805 U6
U 1 1 5DFF36E9
P 4650 850
F 0 "U6" H 4650 1092 50  0000 C CNN
F 1 "L7805" H 4650 1001 50  0000 C CNN
F 2 "Package_TO_SOT_THT:TO-220-3_Vertical" H 4675 700 50  0001 L CIN
F 3 "http://www.st.com/content/ccc/resource/technical/document/datasheet/41/4f/b3/b0/12/d4/47/88/CD00000444.pdf/files/CD00000444.pdf/jcr:content/translations/en.CD00000444.pdf" H 4650 800 50  0001 C CNN
	1    4650 850 
	1    0    0    -1  
$EndComp
$Comp
L Regulator_Linear:L7812 U7
U 1 1 5DFF3CF5
P 4650 1550
F 0 "U7" H 4650 1792 50  0000 C CNN
F 1 "L7812" H 4650 1701 50  0000 C CNN
F 2 "Package_TO_SOT_THT:TO-220-3_Vertical" H 4675 1400 50  0001 L CIN
F 3 "http://www.st.com/content/ccc/resource/technical/document/datasheet/41/4f/b3/b0/12/d4/47/88/CD00000444.pdf/files/CD00000444.pdf/jcr:content/translations/en.CD00000444.pdf" H 4650 1500 50  0001 C CNN
	1    4650 1550
	1    0    0    -1  
$EndComp
$Comp
L Connector:Screw_Terminal_01x02 J2
U 1 1 5DFF3E87
P 3600 850
F 0 "J2" H 3520 1067 50  0000 C CNN
F 1 "power" H 3520 976 50  0000 C CNN
F 2 "TerminalBlock_RND:TerminalBlock_RND_205-00232_1x02_P5.08mm_Horizontal" H 3600 850 50  0001 C CNN
F 3 "~" H 3600 850 50  0001 C CNN
	1    3600 850 
	-1   0    0    -1  
$EndComp
$Comp
L pspice:DIODE D22
U 1 1 5E0081A4
P 4050 850
F 0 "D22" H 4050 1115 50  0000 C CNN
F 1 "DIODE" H 4050 1024 50  0000 C CNN
F 2 "Diode_THT:D_A-405_P7.62mm_Horizontal" H 4050 850 50  0001 C CNN
F 3 "~" H 4050 850 50  0001 C CNN
	1    4050 850 
	1    0    0    -1  
$EndComp
$Comp
L Device:CP1_Small C22
U 1 1 5E0446BA
P 5000 1050
F 0 "C22" H 5091 1096 50  0000 L CNN
F 1 "100u" H 5091 1005 50  0000 L CNN
F 2 "Capacitor_THT:CP_Radial_D10.0mm_P5.00mm_P7.50mm" H 5000 1050 50  0001 C CNN
F 3 "~" H 5000 1050 50  0001 C CNN
	1    5000 1050
	1    0    0    -1  
$EndComp
$Comp
L Device:CP1_Small C23
U 1 1 5E044871
P 5000 1750
F 0 "C23" H 5091 1796 50  0000 L CNN
F 1 "100u" H 5091 1705 50  0000 L CNN
F 2 "Capacitor_THT:CP_Radial_D10.0mm_P5.00mm_P7.50mm" H 5000 1750 50  0001 C CNN
F 3 "~" H 5000 1750 50  0001 C CNN
	1    5000 1750
	1    0    0    -1  
$EndComp
$Comp
L Device:CP1_Small C14
U 1 1 5E044A37
P 4200 1700
F 0 "C14" H 4291 1746 50  0000 L CNN
F 1 "100u" H 4291 1655 50  0000 L CNN
F 2 "Capacitor_THT:CP_Radial_D10.0mm_P5.00mm_P7.50mm" H 4200 1700 50  0001 C CNN
F 3 "~" H 4200 1700 50  0001 C CNN
	1    4200 1700
	1    0    0    -1  
$EndComp
Wire Wire Line
	4250 850  4300 850 
Wire Wire Line
	4300 850  4300 1550
Wire Wire Line
	4300 1550 4350 1550
Connection ~ 4300 850 
Wire Wire Line
	4300 850  4350 850 
Wire Wire Line
	4300 1550 4200 1550
Wire Wire Line
	4200 1550 4200 1600
Connection ~ 4300 1550
Wire Wire Line
	4950 850  5000 850 
Wire Wire Line
	5000 950  5000 850 
Connection ~ 5000 850 
Wire Wire Line
	5000 850  5050 850 
Wire Wire Line
	4950 1550 5000 1550
Wire Wire Line
	5000 1650 5000 1550
Connection ~ 5000 1550
Wire Wire Line
	5000 1550 5050 1550
Wire Wire Line
	4650 1150 4650 1250
Wire Wire Line
	4650 1250 5000 1250
Wire Wire Line
	5350 1250 5350 1950
Wire Wire Line
	5350 1950 5000 1950
Wire Wire Line
	4200 1950 4200 1800
Wire Wire Line
	4650 1850 4650 1950
Connection ~ 4650 1950
Wire Wire Line
	4650 1950 4550 1950
Wire Wire Line
	5000 1850 5000 1950
Connection ~ 5000 1950
Wire Wire Line
	5000 1950 4650 1950
Wire Wire Line
	5000 1150 5000 1250
Connection ~ 5000 1250
Wire Wire Line
	5000 1250 5350 1250
Wire Wire Line
	3800 850  3850 850 
Wire Wire Line
	3300 6200 3300 6350
Wire Wire Line
	7400 1450 7400 1400
$Comp
L Device:R R48
U 1 1 5E0F1871
P 4800 3700
F 0 "R48" H 4870 3746 50  0000 L CNN
F 1 "1k" H 4870 3655 50  0000 L CNN
F 2 "Resistor_THT:R_Axial_DIN0204_L3.6mm_D1.6mm_P2.54mm_Vertical" V 4730 3700 50  0001 C CNN
F 3 "~" H 4800 3700 50  0001 C CNN
	1    4800 3700
	1    0    0    -1  
$EndComp
Text GLabel 4850 3500 2    50   BiDi ~ 0
SPOTX
$Comp
L power:GND #PWR021
U 1 1 5E0F1879
P 4800 3900
F 0 "#PWR021" H 4800 3650 50  0001 C CNN
F 1 "GND" H 4805 3727 50  0000 C CNN
F 2 "" H 4800 3900 50  0001 C CNN
F 3 "" H 4800 3900 50  0001 C CNN
	1    4800 3900
	1    0    0    -1  
$EndComp
Wire Wire Line
	4800 3550 4800 3500
Wire Wire Line
	4800 3500 4850 3500
Wire Wire Line
	4800 3900 4800 3850
$Comp
L Device:R R49
U 1 1 5E0FE592
P 5300 3700
F 0 "R49" H 5370 3746 50  0000 L CNN
F 1 "1k" H 5370 3655 50  0000 L CNN
F 2 "Resistor_THT:R_Axial_DIN0204_L3.6mm_D1.6mm_P2.54mm_Vertical" V 5230 3700 50  0001 C CNN
F 3 "~" H 5300 3700 50  0001 C CNN
	1    5300 3700
	1    0    0    -1  
$EndComp
Text GLabel 5350 3500 2    50   BiDi ~ 0
SPOTY
$Comp
L power:GND #PWR022
U 1 1 5E0FE59A
P 5300 3900
F 0 "#PWR022" H 5300 3650 50  0001 C CNN
F 1 "GND" H 5305 3727 50  0000 C CNN
F 2 "" H 5300 3900 50  0001 C CNN
F 3 "" H 5300 3900 50  0001 C CNN
	1    5300 3900
	1    0    0    -1  
$EndComp
Wire Wire Line
	5300 3550 5300 3500
Wire Wire Line
	5300 3500 5350 3500
Wire Wire Line
	5300 3900 5300 3850
Text GLabel 6650 3250 0    50   BiDi ~ 0
PD2
Text GLabel 6650 3350 0    50   BiDi ~ 0
PD3
$Comp
L Device:R R50
U 1 1 5E10CEF8
P 6800 3250
F 0 "R50" V 6593 3250 50  0000 C CNN
F 1 "1k" V 6684 3250 50  0000 C CNN
F 2 "Resistor_THT:R_Axial_DIN0204_L3.6mm_D1.6mm_P2.54mm_Vertical" V 6730 3250 50  0001 C CNN
F 3 "~" H 6800 3250 50  0001 C CNN
	1    6800 3250
	0    1    1    0   
$EndComp
$Comp
L Device:R R51
U 1 1 5E10CEFF
P 6800 3350
F 0 "R51" V 6593 3350 50  0000 C CNN
F 1 "1k" V 6684 3350 50  0000 C CNN
F 2 "Resistor_THT:R_Axial_DIN0204_L3.6mm_D1.6mm_P2.54mm_Vertical" V 6730 3350 50  0001 C CNN
F 3 "~" H 6800 3350 50  0001 C CNN
	1    6800 3350
	0    1    1    0   
$EndComp
$Comp
L Device:LED D23
U 1 1 5E10CF06
P 7150 3250
F 0 "D23" H 7142 3466 50  0000 C CNN
F 1 "LED" H 7142 3375 50  0000 C CNN
F 2 "LED_THT:LED_D3.0mm" H 7150 3250 50  0001 C CNN
F 3 "~" H 7150 3250 50  0001 C CNN
	1    7150 3250
	-1   0    0    -1  
$EndComp
$Comp
L Device:LED D24
U 1 1 5E10CF0D
P 7150 3350
F 0 "D24" H 7142 3566 50  0000 C CNN
F 1 "LED" H 7142 3475 50  0000 C CNN
F 2 "LED_THT:LED_D3.0mm" H 7150 3350 50  0001 C CNN
F 3 "~" H 7150 3350 50  0001 C CNN
	1    7150 3350
	-1   0    0    -1  
$EndComp
Wire Wire Line
	6950 3250 7000 3250
Wire Wire Line
	7000 3350 6950 3350
Wire Wire Line
	7400 3250 7300 3250
Wire Wire Line
	7300 3350 7400 3350
Wire Wire Line
	7400 3350 7400 3250
$Comp
L power:VDDA #PWR0103
U 1 1 5E11FA83
P 1700 700
F 0 "#PWR0103" H 1700 550 50  0001 C CNN
F 1 "VDDA" H 1717 873 50  0000 C CNN
F 2 "" H 1700 700 50  0001 C CNN
F 3 "" H 1700 700 50  0001 C CNN
	1    1700 700 
	1    0    0    -1  
$EndComp
Wire Wire Line
	1600 750  1700 750 
Wire Wire Line
	1700 750  1700 700 
Connection ~ 1700 750 
Wire Wire Line
	1700 750  1800 750 
$Comp
L power:VD #PWR0104
U 1 1 5E159B49
P 4300 750
F 0 "#PWR0104" H 4300 600 50  0001 C CNN
F 1 "VD" H 4317 923 50  0000 C CNN
F 2 "" H 4300 750 50  0001 C CNN
F 3 "" H 4300 750 50  0001 C CNN
	1    4300 750 
	1    0    0    -1  
$EndComp
Wire Wire Line
	4300 850  4300 750 
$Comp
L power:GND #PWR0105
U 1 1 5E168E0F
P 4550 2000
F 0 "#PWR0105" H 4550 1750 50  0001 C CNN
F 1 "GND" H 4555 1827 50  0000 C CNN
F 2 "" H 4550 2000 50  0001 C CNN
F 3 "" H 4550 2000 50  0001 C CNN
	1    4550 2000
	1    0    0    -1  
$EndComp
Wire Wire Line
	4550 2000 4550 1950
Connection ~ 4550 1950
Wire Wire Line
	4550 1950 4200 1950
$Comp
L power:GNDPWR #PWR0106
U 1 1 5E1790BA
P 2800 7450
F 0 "#PWR0106" H 2800 7250 50  0001 C CNN
F 1 "GNDPWR" H 2804 7296 50  0000 C CNN
F 2 "" H 2800 7400 50  0001 C CNN
F 3 "" H 2800 7400 50  0001 C CNN
	1    2800 7450
	1    0    0    -1  
$EndComp
Wire Wire Line
	2400 7400 2800 7400
Wire Wire Line
	2800 7400 2800 7450
Wire Wire Line
	6600 1400 6600 1550
Wire Wire Line
	6600 1850 6600 1950
$Comp
L Device:R_POT RV2
U 1 1 5E206863
P 9500 2000
F 0 "RV2" H 9430 1954 50  0000 R CNN
F 1 "100" H 9430 2045 50  0000 R CNN
F 2 "Potentiometer_THT:Potentiometer_Vishay_248BH-249BH_Single_Horizontal" H 9500 2000 50  0001 C CNN
F 3 "~" H 9500 2000 50  0001 C CNN
	1    9500 2000
	1    0    0    1   
$EndComp
Wire Wire Line
	9500 2150 10100 2150
Connection ~ 10100 2150
Wire Wire Line
	9950 2050 9950 2000
Wire Wire Line
	9950 2000 9650 2000
Wire Wire Line
	9300 1800 9500 1800
Wire Wire Line
	9500 1800 9500 1850
Wire Wire Line
	7700 1100 7900 1100
Wire Wire Line
	5050 6150 5350 6150
Wire Wire Line
	5350 6250 5050 6250
Wire Wire Line
	5050 6350 5350 6350
Wire Wire Line
	5350 6450 5050 6450
Wire Wire Line
	5050 6550 5350 6550
Wire Wire Line
	5350 6650 5050 6650
Wire Wire Line
	5050 6750 5350 6750
Wire Wire Line
	5350 6850 5050 6850
Wire Wire Line
	5050 7000 5350 7000
Wire Wire Line
	5350 7100 5050 7100
Wire Wire Line
	5050 7200 5350 7200
Wire Wire Line
	5350 7300 5050 7300
Wire Wire Line
	5050 7400 5350 7400
Wire Wire Line
	5350 7500 5050 7500
Wire Wire Line
	5050 7600 5350 7600
Wire Wire Line
	5350 7700 5050 7700
$Comp
L Device:R R47
U 1 1 5DD809C3
P 8700 4850
F 0 "R47" V 8493 4850 50  0000 C CNN
F 1 "1k" V 8584 4850 50  0000 C CNN
F 2 "Resistor_THT:R_Axial_DIN0204_L3.6mm_D1.6mm_P2.54mm_Vertical" V 8630 4850 50  0001 C CNN
F 3 "~" H 8700 4850 50  0001 C CNN
	1    8700 4850
	0    1    1    0   
$EndComp
$Comp
L Device:R R42
U 1 1 5DD809BC
P 8700 4650
F 0 "R42" V 8493 4650 50  0000 C CNN
F 1 "1k" V 8584 4650 50  0000 C CNN
F 2 "Resistor_THT:R_Axial_DIN0204_L3.6mm_D1.6mm_P2.54mm_Vertical" V 8630 4650 50  0001 C CNN
F 3 "~" H 8700 4650 50  0001 C CNN
	1    8700 4650
	0    1    1    0   
$EndComp
$Comp
L Device:R R40
U 1 1 5DD809B5
P 8700 4450
F 0 "R40" V 8493 4450 50  0000 C CNN
F 1 "1k" V 8584 4450 50  0000 C CNN
F 2 "Resistor_THT:R_Axial_DIN0204_L3.6mm_D1.6mm_P2.54mm_Vertical" V 8630 4450 50  0001 C CNN
F 3 "~" H 8700 4450 50  0001 C CNN
	1    8700 4450
	0    1    1    0   
$EndComp
$Comp
L Device:R R37
U 1 1 5DD809AE
P 8700 4250
F 0 "R37" V 8493 4250 50  0000 C CNN
F 1 "1k" V 8584 4250 50  0000 C CNN
F 2 "Resistor_THT:R_Axial_DIN0204_L3.6mm_D1.6mm_P2.54mm_Vertical" V 8630 4250 50  0001 C CNN
F 3 "~" H 8700 4250 50  0001 C CNN
	1    8700 4250
	0    1    1    0   
$EndComp
$Comp
L Device:R R36
U 1 1 5DD809A7
P 8700 4050
F 0 "R36" V 8493 4050 50  0000 C CNN
F 1 "1k" V 8584 4050 50  0000 C CNN
F 2 "Resistor_THT:R_Axial_DIN0204_L3.6mm_D1.6mm_P2.54mm_Vertical" V 8630 4050 50  0001 C CNN
F 3 "~" H 8700 4050 50  0001 C CNN
	1    8700 4050
	0    1    1    0   
$EndComp
$Comp
L Device:R R35
U 1 1 5DD809A0
P 8700 3850
F 0 "R35" V 8493 3850 50  0000 C CNN
F 1 "1k" V 8584 3850 50  0000 C CNN
F 2 "Resistor_THT:R_Axial_DIN0204_L3.6mm_D1.6mm_P2.54mm_Vertical" V 8630 3850 50  0001 C CNN
F 3 "~" H 8700 3850 50  0001 C CNN
	1    8700 3850
	0    1    1    0   
$EndComp
$Comp
L Device:R R34
U 1 1 5DD80999
P 8700 3650
F 0 "R34" V 8493 3650 50  0000 C CNN
F 1 "1k" V 8584 3650 50  0000 C CNN
F 2 "Resistor_THT:R_Axial_DIN0204_L3.6mm_D1.6mm_P2.54mm_Vertical" V 8630 3650 50  0001 C CNN
F 3 "~" H 8700 3650 50  0001 C CNN
	1    8700 3650
	0    1    1    0   
$EndComp
$Comp
L Device:R R33
U 1 1 5DD80992
P 8700 3450
F 0 "R33" V 8493 3450 50  0000 C CNN
F 1 "1k" V 8584 3450 50  0000 C CNN
F 2 "Resistor_THT:R_Axial_DIN0204_L3.6mm_D1.6mm_P2.54mm_Vertical" V 8630 3450 50  0001 C CNN
F 3 "~" H 8700 3450 50  0001 C CNN
	1    8700 3450
	0    1    1    0   
$EndComp
Text GLabel 8550 4850 0    50   BiDi ~ 0
PC7
Text GLabel 8550 4650 0    50   BiDi ~ 0
PC6
Text GLabel 8550 4450 0    50   BiDi ~ 0
PC5
Text GLabel 8550 4250 0    50   BiDi ~ 0
PC4
Text GLabel 8550 4050 0    50   BiDi ~ 0
PC3
Text GLabel 8550 3850 0    50   BiDi ~ 0
PC2
Text GLabel 8550 3650 0    50   BiDi ~ 0
PC1
Text GLabel 8550 3450 0    50   BiDi ~ 0
PC0
Wire Wire Line
	7400 3400 7400 3350
Connection ~ 7400 3350
$Comp
L Device:R R17
U 1 1 5E3BC863
P 10100 3450
F 0 "R17" V 9893 3450 50  0000 C CNN
F 1 "1k" V 9984 3450 50  0000 C CNN
F 2 "Resistor_THT:R_Axial_DIN0204_L3.6mm_D1.6mm_P2.54mm_Vertical" V 10030 3450 50  0001 C CNN
F 3 "~" H 10100 3450 50  0001 C CNN
	1    10100 3450
	0    1    1    0   
$EndComp
$Comp
L Device:R R10
U 1 1 5E3BC86A
P 9700 3650
F 0 "R10" V 9493 3650 50  0000 C CNN
F 1 "1k" V 9584 3650 50  0000 C CNN
F 2 "Resistor_THT:R_Axial_DIN0204_L3.6mm_D1.6mm_P2.54mm_Vertical" V 9630 3650 50  0001 C CNN
F 3 "~" H 9700 3650 50  0001 C CNN
	1    9700 3650
	0    1    1    0   
$EndComp
$Comp
L Device:R R11
U 1 1 5E3BC871
P 9700 3850
F 0 "R11" V 9493 3850 50  0000 C CNN
F 1 "1k" V 9584 3850 50  0000 C CNN
F 2 "Resistor_THT:R_Axial_DIN0204_L3.6mm_D1.6mm_P2.54mm_Vertical" V 9630 3850 50  0001 C CNN
F 3 "~" H 9700 3850 50  0001 C CNN
	1    9700 3850
	0    1    1    0   
$EndComp
$Comp
L Device:R R12
U 1 1 5E3BC878
P 9700 4050
F 0 "R12" V 9493 4050 50  0000 C CNN
F 1 "1k" V 9584 4050 50  0000 C CNN
F 2 "Resistor_THT:R_Axial_DIN0204_L3.6mm_D1.6mm_P2.54mm_Vertical" V 9630 4050 50  0001 C CNN
F 3 "~" H 9700 4050 50  0001 C CNN
	1    9700 4050
	0    1    1    0   
$EndComp
$Comp
L Device:R R13
U 1 1 5E3BC87F
P 9700 4250
F 0 "R13" V 9493 4250 50  0000 C CNN
F 1 "1k" V 9584 4250 50  0000 C CNN
F 2 "Resistor_THT:R_Axial_DIN0204_L3.6mm_D1.6mm_P2.54mm_Vertical" V 9630 4250 50  0001 C CNN
F 3 "~" H 9700 4250 50  0001 C CNN
	1    9700 4250
	0    1    1    0   
$EndComp
$Comp
L Device:R R14
U 1 1 5E3BC886
P 9700 4450
F 0 "R14" V 9493 4450 50  0000 C CNN
F 1 "1k" V 9584 4450 50  0000 C CNN
F 2 "Resistor_THT:R_Axial_DIN0204_L3.6mm_D1.6mm_P2.54mm_Vertical" V 9630 4450 50  0001 C CNN
F 3 "~" H 9700 4450 50  0001 C CNN
	1    9700 4450
	0    1    1    0   
$EndComp
$Comp
L Device:R R15
U 1 1 5E3BC88D
P 9700 4650
F 0 "R15" V 9493 4650 50  0000 C CNN
F 1 "1k" V 9584 4650 50  0000 C CNN
F 2 "Resistor_THT:R_Axial_DIN0204_L3.6mm_D1.6mm_P2.54mm_Vertical" V 9630 4650 50  0001 C CNN
F 3 "~" H 9700 4650 50  0001 C CNN
	1    9700 4650
	0    1    1    0   
$EndComp
$Comp
L Device:R R16
U 1 1 5E3BC894
P 9700 4850
F 0 "R16" V 9493 4850 50  0000 C CNN
F 1 "1k" V 9584 4850 50  0000 C CNN
F 2 "Resistor_THT:R_Axial_DIN0204_L3.6mm_D1.6mm_P2.54mm_Vertical" V 9630 4850 50  0001 C CNN
F 3 "~" H 9700 4850 50  0001 C CNN
	1    9700 4850
	0    1    1    0   
$EndComp
$Comp
L Device:R R9
U 1 1 5E4562D3
P 9700 3450
F 0 "R9" V 9493 3450 50  0000 C CNN
F 1 "1k" V 9584 3450 50  0000 C CNN
F 2 "Resistor_THT:R_Axial_DIN0204_L3.6mm_D1.6mm_P2.54mm_Vertical" V 9630 3450 50  0001 C CNN
F 3 "~" H 9700 3450 50  0001 C CNN
	1    9700 3450
	0    1    1    0   
$EndComp
Wire Wire Line
	8850 3450 9050 3450
Wire Wire Line
	8850 3650 9050 3650
Wire Wire Line
	8850 3850 9050 3850
Wire Wire Line
	8850 4050 9050 4050
Wire Wire Line
	8850 4250 9050 4250
Wire Wire Line
	8850 4450 9050 4450
Wire Wire Line
	8850 4650 9050 4650
Wire Wire Line
	8850 4850 9050 4850
$Comp
L power:GND #PWR0107
U 1 1 5E51373F
P 10350 3500
F 0 "#PWR0107" H 10350 3250 50  0001 C CNN
F 1 "GND" H 10355 3327 50  0000 C CNN
F 2 "" H 10350 3500 50  0001 C CNN
F 3 "" H 10350 3500 50  0001 C CNN
	1    10350 3500
	1    0    0    -1  
$EndComp
Wire Wire Line
	10350 3500 10350 3450
Wire Wire Line
	10250 3450 10350 3450
Wire Wire Line
	9950 3450 9850 3450
Wire Wire Line
	9350 3450 9450 3450
Wire Wire Line
	9450 3450 9450 3550
Wire Wire Line
	9450 3550 9950 3550
Wire Wire Line
	9950 3550 9950 3650
Wire Wire Line
	9850 3650 9950 3650
Connection ~ 9450 3450
Wire Wire Line
	9450 3450 9550 3450
Wire Wire Line
	9350 3650 9450 3650
Wire Wire Line
	9450 3650 9450 3750
Wire Wire Line
	9450 3750 9950 3750
Wire Wire Line
	9950 3750 9950 3850
Wire Wire Line
	9850 3850 9950 3850
Connection ~ 9450 3650
Wire Wire Line
	9450 3650 9550 3650
Wire Wire Line
	9350 3850 9450 3850
Wire Wire Line
	9450 3850 9450 3950
Wire Wire Line
	9450 3950 9950 3950
Wire Wire Line
	9950 3950 9950 4050
Wire Wire Line
	9850 4050 9950 4050
Connection ~ 9450 3850
Wire Wire Line
	9450 3850 9550 3850
Wire Wire Line
	9350 4050 9450 4050
Wire Wire Line
	9450 4050 9450 4150
Connection ~ 9450 4050
Wire Wire Line
	9450 4050 9550 4050
Wire Wire Line
	9950 4150 9950 4250
Wire Wire Line
	9850 4250 9950 4250
Wire Wire Line
	9450 4150 9950 4150
Wire Wire Line
	9350 4250 9450 4250
Wire Wire Line
	9450 4250 9450 4350
Wire Wire Line
	9450 4350 9950 4350
Wire Wire Line
	9950 4350 9950 4450
Wire Wire Line
	9850 4450 9950 4450
Connection ~ 9450 4250
Wire Wire Line
	9450 4250 9550 4250
Wire Wire Line
	9350 4450 9450 4450
Wire Wire Line
	9450 4450 9450 4550
Wire Wire Line
	9450 4550 9950 4550
Wire Wire Line
	9950 4550 9950 4650
Wire Wire Line
	9850 4650 9950 4650
Connection ~ 9450 4450
Wire Wire Line
	9450 4450 9550 4450
Wire Wire Line
	9350 4650 9450 4650
Wire Wire Line
	9450 4650 9450 4750
Wire Wire Line
	9450 4750 9950 4750
Wire Wire Line
	9950 4750 9950 4850
Wire Wire Line
	9850 4850 9950 4850
Connection ~ 9450 4650
Wire Wire Line
	9450 4650 9550 4650
Wire Wire Line
	9350 4850 9450 4850
$Comp
L Device:CP C6
U 1 1 5E61A556
P 9550 5450
F 0 "C6" H 9668 5496 50  0000 L CNN
F 1 "470u" H 9668 5405 50  0000 L CNN
F 2 "Capacitor_THT:CP_Radial_D10.0mm_P2.50mm_P5.00mm" H 9588 5300 50  0001 C CNN
F 3 "~" H 9550 5450 50  0001 C CNN
	1    9550 5450
	0    -1   -1   0   
$EndComp
$Comp
L power:GND #PWR0108
U 1 1 5E61A55D
P 10500 5850
F 0 "#PWR0108" H 10500 5600 50  0001 C CNN
F 1 "GND" H 10505 5677 50  0000 C CNN
F 2 "" H 10500 5850 50  0001 C CNN
F 3 "" H 10500 5850 50  0001 C CNN
	1    10500 5850
	1    0    0    -1  
$EndComp
$Comp
L Connector:Screw_Terminal_01x02 J3
U 1 1 5E61A563
P 10750 5700
F 0 "J3" H 10829 5692 50  0000 L CNN
F 1 "audio_out" H 10829 5601 50  0000 L CNN
F 2 "TerminalBlock_RND:TerminalBlock_RND_205-00232_1x02_P5.08mm_Horizontal" H 10750 5700 50  0001 C CNN
F 3 "~" H 10750 5700 50  0001 C CNN
	1    10750 5700
	1    0    0    -1  
$EndComp
Wire Wire Line
	10550 5800 10500 5800
Wire Wire Line
	10500 5800 10500 5850
Wire Wire Line
	10350 5700 10550 5700
$Comp
L Device:R_POT RV3
U 1 1 5E61A56D
P 9900 5650
F 0 "RV3" H 9830 5604 50  0000 R CNN
F 1 "100" H 9830 5695 50  0000 R CNN
F 2 "Potentiometer_THT:Potentiometer_Vishay_248BH-249BH_Single_Horizontal" H 9900 5650 50  0001 C CNN
F 3 "~" H 9900 5650 50  0001 C CNN
	1    9900 5650
	1    0    0    1   
$EndComp
Wire Wire Line
	9900 5800 10500 5800
Connection ~ 10500 5800
Wire Wire Line
	10350 5700 10350 5650
Wire Wire Line
	10350 5650 10050 5650
Wire Wire Line
	9700 5450 9900 5450
Wire Wire Line
	9900 5450 9900 5500
Wire Wire Line
	9450 4850 9450 5300
Wire Wire Line
	9450 5300 9300 5300
Wire Wire Line
	9300 5300 9300 5450
Wire Wire Line
	9300 5450 9400 5450
Connection ~ 9450 4850
Wire Wire Line
	9450 4850 9550 4850
$Comp
L Connector:Conn_01x01_Male J4
U 1 1 5E6392E6
P 10200 800
F 0 "J4" H 10306 978 50  0000 C CNN
F 1 "GND" H 10306 887 50  0000 C CNN
F 2 "MountingHole:MountingHole_3.2mm_M3_Pad" H 10200 800 50  0001 C CNN
F 3 "~" H 10200 800 50  0001 C CNN
	1    10200 800 
	1    0    0    -1  
$EndComp
$Comp
L Connector:Conn_01x01_Male J5
U 1 1 5E6397B2
P 10200 850
F 0 "J5" H 10306 1028 50  0000 C CNN
F 1 "GND" H 10306 937 50  0000 C CNN
F 2 "MountingHole:MountingHole_3.2mm_M3_Pad" H 10200 850 50  0001 C CNN
F 3 "~" H 10200 850 50  0001 C CNN
	1    10200 850 
	1    0    0    -1  
$EndComp
$Comp
L Connector:Conn_01x01_Male J6
U 1 1 5E648CC5
P 10200 900
F 0 "J6" H 10306 1078 50  0000 C CNN
F 1 "GND" H 10306 987 50  0000 C CNN
F 2 "MountingHole:MountingHole_3.2mm_M3_Pad" H 10200 900 50  0001 C CNN
F 3 "~" H 10200 900 50  0001 C CNN
	1    10200 900 
	1    0    0    -1  
$EndComp
$Comp
L Connector:Conn_01x01_Male J7
U 1 1 5E648CCC
P 10200 950
F 0 "J7" H 10306 1128 50  0000 C CNN
F 1 "GND" H 10306 1037 50  0000 C CNN
F 2 "MountingHole:MountingHole_3.2mm_M3_Pad" H 10200 950 50  0001 C CNN
F 3 "~" H 10200 950 50  0001 C CNN
	1    10200 950 
	1    0    0    -1  
$EndComp
$Comp
L Connector:Conn_01x01_Male J8
U 1 1 5E658377
P 10200 1000
F 0 "J8" H 10306 1178 50  0000 C CNN
F 1 "GND" H 10306 1087 50  0000 C CNN
F 2 "Connector_PinHeader_1.00mm:PinHeader_1x01_P1.00mm_Vertical" H 10200 1000 50  0001 C CNN
F 3 "~" H 10200 1000 50  0001 C CNN
	1    10200 1000
	1    0    0    -1  
$EndComp
$Comp
L Connector:Conn_01x01_Male J10
U 1 1 5E65837E
P 10200 1050
F 0 "J10" H 10306 1228 50  0000 C CNN
F 1 "GND" H 10306 1137 50  0000 C CNN
F 2 "TestPoint:TestPoint_THTPad_D1.0mm_Drill0.5mm" H 10200 1050 50  0001 C CNN
F 3 "~" H 10200 1050 50  0001 C CNN
	1    10200 1050
	1    0    0    -1  
$EndComp
$Comp
L Connector:Conn_01x01_Male J17
U 1 1 5E658385
P 10200 1350
F 0 "J17" H 10306 1528 50  0000 C CNN
F 1 "GND" H 10306 1437 50  0000 C CNN
F 2 "TestPoint:TestPoint_THTPad_2.0x2.0mm_Drill1.0mm" H 10200 1350 50  0001 C CNN
F 3 "~" H 10200 1350 50  0001 C CNN
	1    10200 1350
	1    0    0    -1  
$EndComp
$Comp
L Connector:Conn_01x01_Male J11
U 1 1 5E65838C
P 10200 1100
F 0 "J11" H 10306 1278 50  0000 C CNN
F 1 "GND" H 10306 1187 50  0000 C CNN
F 2 "TestPoint:TestPoint_THTPad_D1.0mm_Drill0.5mm" H 10200 1100 50  0001 C CNN
F 3 "~" H 10200 1100 50  0001 C CNN
	1    10200 1100
	1    0    0    -1  
$EndComp
$Comp
L Connector:Conn_01x01_Male J14
U 1 1 5E6679E6
P 10200 1150
F 0 "J14" H 10306 1328 50  0000 C CNN
F 1 "GND" H 10306 1237 50  0000 C CNN
F 2 "TestPoint:TestPoint_THTPad_2.0x2.0mm_Drill1.0mm" H 10200 1150 50  0001 C CNN
F 3 "~" H 10200 1150 50  0001 C CNN
	1    10200 1150
	1    0    0    -1  
$EndComp
$Comp
L Connector:Conn_01x01_Male J15
U 1 1 5E6679ED
P 10200 1200
F 0 "J15" H 10306 1378 50  0000 C CNN
F 1 "GND" H 10306 1287 50  0000 C CNN
F 2 "TestPoint:TestPoint_THTPad_2.0x2.0mm_Drill1.0mm" H 10200 1200 50  0001 C CNN
F 3 "~" H 10200 1200 50  0001 C CNN
	1    10200 1200
	1    0    0    -1  
$EndComp
$Comp
L Connector:Conn_01x01_Male J18
U 1 1 5E6679F4
P 10200 1400
F 0 "J18" H 10306 1578 50  0000 C CNN
F 1 "GND" H 10306 1487 50  0000 C CNN
F 2 "TestPoint:TestPoint_THTPad_2.0x2.0mm_Drill1.0mm" H 10200 1400 50  0001 C CNN
F 3 "~" H 10200 1400 50  0001 C CNN
	1    10200 1400
	1    0    0    -1  
$EndComp
$Comp
L Connector:Conn_01x01_Male J16
U 1 1 5E6679FB
P 10200 1300
F 0 "J16" H 10306 1478 50  0000 C CNN
F 1 "GND" H 10306 1387 50  0000 C CNN
F 2 "TestPoint:TestPoint_THTPad_2.0x2.0mm_Drill1.0mm" H 10200 1300 50  0001 C CNN
F 3 "~" H 10200 1300 50  0001 C CNN
	1    10200 1300
	1    0    0    -1  
$EndComp
$Comp
L power:GND #PWR0109
U 1 1 5E67799A
P 10450 1450
F 0 "#PWR0109" H 10450 1200 50  0001 C CNN
F 1 "GND" H 10455 1277 50  0000 C CNN
F 2 "" H 10450 1450 50  0001 C CNN
F 3 "" H 10450 1450 50  0001 C CNN
	1    10450 1450
	1    0    0    -1  
$EndComp
Wire Wire Line
	10450 1450 10450 1400
Wire Wire Line
	10450 800  10400 800 
Wire Wire Line
	10400 850  10450 850 
Connection ~ 10450 850 
Wire Wire Line
	10450 850  10450 800 
Wire Wire Line
	10400 900  10450 900 
Connection ~ 10450 900 
Wire Wire Line
	10450 900  10450 850 
Wire Wire Line
	10400 950  10450 950 
Connection ~ 10450 950 
Wire Wire Line
	10450 950  10450 900 
Wire Wire Line
	10400 1000 10450 1000
Connection ~ 10450 1000
Wire Wire Line
	10450 1000 10450 950 
Wire Wire Line
	10400 1050 10450 1050
Connection ~ 10450 1050
Wire Wire Line
	10450 1050 10450 1000
Wire Wire Line
	10400 1100 10450 1100
Connection ~ 10450 1100
Wire Wire Line
	10450 1100 10450 1050
Wire Wire Line
	10400 1150 10450 1150
Connection ~ 10450 1150
Wire Wire Line
	10450 1150 10450 1100
Wire Wire Line
	10400 1200 10450 1200
Connection ~ 10450 1200
Wire Wire Line
	10450 1200 10450 1150
Wire Wire Line
	10400 1300 10450 1300
Connection ~ 10450 1300
Wire Wire Line
	10450 1300 10450 1200
Wire Wire Line
	10400 1350 10450 1350
Connection ~ 10450 1350
Wire Wire Line
	10450 1350 10450 1300
Wire Wire Line
	10400 1400 10450 1400
Connection ~ 10450 1400
Wire Wire Line
	10450 1400 10450 1350
$EndSCHEMATC
