(module LOGO (layer F.Cu)
  (at 0 0)
 (fp_text reference "G***" (at 0 0) (layer F.SilkS) hide
  (effects (font (thickness 0.3)))
  )
  (fp_text value "LOGO" (at 0.75 0) (layer F.SilkS) hide
  (effects (font (thickness 0.3)))
  )
  (fp_poly (pts (xy 0.000000 10.837333) (xy -10.837333 10.837333) (xy -10.837333 8.831730) (xy -9.197041 8.831730) (xy -9.107520 8.975544) (xy -9.058458 9.042409) (xy -8.863554 9.306032) (xy -8.601610 9.122830)
     (xy -8.417152 8.978062) (xy -8.159798 8.756217) (xy -7.877422 8.498911) (xy -7.802284 8.427980) (xy -7.312804 7.927064) (xy -6.923676 7.439047) (xy -6.585577 6.897634) (xy -6.395414 6.536989)
     (xy -6.198584 6.092298) (xy -6.113890 5.764095) (xy -6.112051 5.648166) (xy -6.138333 5.376333) (xy -9.017000 5.376333) (xy -9.070062 5.926667) (xy -7.964031 5.926667) (xy -7.476589 5.928999)
     (xy -7.141886 5.945339) (xy -6.943331 5.989706) (xy -6.864329 6.076114) (xy -6.888288 6.218581) (xy -6.998615 6.431124) (xy -7.123166 6.636969) (xy -7.557455 7.261561) (xy -8.065211 7.823356)
     (xy -8.682583 8.359572) (xy -9.092848 8.664811) (xy -9.190416 8.747190) (xy -9.197041 8.831730) (xy -10.837333 8.831730) (xy -10.837333 3.640667) (xy -8.212667 3.640667) (xy -8.212667 4.229239)
     (xy -5.376333 4.275667) (xy -5.352560 6.561667) (xy -5.347958 7.176499) (xy -5.347115 7.743322) (xy -5.349797 8.237780) (xy -5.355770 8.635515) (xy -5.364800 8.912171) (xy -5.376394 9.042367)
     (xy -5.406787 9.135439) (xy -5.465400 9.189294) (xy -5.587544 9.210081) (xy -5.808528 9.203951) (xy -6.154200 9.177819) (xy -6.884399 9.118571) (xy -6.830023 9.321786) (xy -6.786911 9.520129)
     (xy -6.774490 9.626793) (xy -6.691814 9.693373) (xy -6.455447 9.740809) (xy -6.244167 9.758646) (xy -5.912385 9.777691) (xy -5.608462 9.795467) (xy -5.449213 9.805020) (xy -5.160582 9.757403)
     (xy -4.983547 9.659673) (xy -4.914867 9.598312) (xy -4.863280 9.524695) (xy -4.825555 9.414534) (xy -4.798464 9.243540) (xy -4.778776 8.987426) (xy -4.763264 8.621902) (xy -4.748696 8.122680)
     (xy -4.741333 7.837924) (xy -4.699000 6.177836) (xy -4.336333 6.793085) (xy -4.093419 7.173659) (xy -3.804773 7.580693) (xy -3.532758 7.926256) (xy -3.531999 7.927148) (xy -3.279697 8.205564)
     (xy -2.988601 8.499028) (xy -2.687657 8.781633) (xy -2.405809 9.027469) (xy -2.172003 9.210628) (xy -2.015183 9.305204) (xy -1.984181 9.312581) (xy -1.906807 9.246190) (xy -1.795469 9.086893)
     (xy -1.686780 8.895708) (xy -1.617348 8.733655) (xy -1.608667 8.686712) (xy -1.672775 8.628263) (xy -1.836846 8.509465) (xy -1.968442 8.420414) (xy -2.455916 8.046571) (xy -2.957687 7.572756)
     (xy -3.418615 7.053439) (xy -3.619797 6.789173) (xy -4.001800 6.254679) (xy -3.819148 6.126745) (xy -3.432511 5.822719) (xy -3.006149 5.433416) (xy -2.597294 5.012390) (xy -2.451021 4.846563)
     (xy -2.039031 4.363762) (xy -2.219608 4.171548) (xy -2.370167 4.036026) (xy -2.479345 3.979334) (xy -2.479635 3.979333) (xy -2.568493 4.037757) (xy -2.740556 4.194395) (xy -2.966089 4.421292)
     (xy -3.092250 4.555200) (xy -3.371566 4.840609) (xy -3.660200 5.108425) (xy -3.930592 5.336232) (xy -4.155182 5.501612) (xy -4.306411 5.582151) (xy -4.351460 5.579411) (xy -4.404435 5.490035)
     (xy -4.504105 5.301892) (xy -4.561593 5.189206) (xy -4.678009 4.883028) (xy -4.732801 4.520693) (xy -4.741333 4.236706) (xy -4.741333 3.640667) (xy -8.212667 3.640667) (xy -10.837333 3.640667)
     (xy -10.837333 2.652140) (xy -7.522935 2.652140) (xy -7.520410 2.657802) (xy -7.430803 2.677818) (xy -7.209760 2.718407) (xy -6.893022 2.773188) (xy -6.604000 2.821422) (xy -6.105909 2.909927)
     (xy -5.548668 3.019120) (xy -5.028325 3.129904) (xy -4.868333 3.166544) (xy -4.504747 3.250918) (xy -4.199751 3.319760) (xy -3.992961 3.364238) (xy -3.928677 3.376056) (xy -3.843044 3.311560)
     (xy -3.740534 3.137275) (xy -3.707198 3.059566) (xy -3.578709 2.732466) (xy -5.197188 2.457334) (xy -5.715280 2.369082) (xy -6.188810 2.288084) (xy -6.587453 2.219554) (xy -6.880887 2.168706)
     (xy -7.038787 2.140752) (xy -7.041570 2.140237) (xy -7.211053 2.138390) (xy -7.330644 2.237577) (xy -7.407646 2.369337) (xy -7.492628 2.550941) (xy -7.522935 2.652140) (xy -10.837333 2.652140)
     (xy -10.837333 0.000000) (xy 0.000000 0.000000) (xy 0.000000 10.837333) )(layer F.SilkS) (width  0.010000)
  )
  (fp_poly (pts (xy 0.000000 -10.837333) (xy 10.837333 -10.837333) (xy 10.837333 0.000000) (xy 0.000000 0.000000) (xy 0.000000 -10.837333) )(layer F.SilkS) (width  0.010000)
  )
)
